[
    {
        "id": "ACCNTMGT",
        "name": "Account management",
        "snippet": "Some description text here"
    },
    {
        "id": "ADMIN",
        "name": "Admin",
        "snippet": "Some description text here"
    },
    {
        "id": "ALL",
        "name": "All users",
        "snippet": "Some description text here"
    },
    {
        "id": "DEVL",
        "name": "Developers",
        "snippet": "Some description text here"
    },
    {
        "id": "DRCTR",
        "name": "Director",
        "snippet": "Some description text here"
    },
    {
        "id": "FINANCE",
        "name": "Finance",
        "snippet": "Some description text here"
    },
    {
        "id": "HLPAUTH",
        "name": "Help authors",
        "snippet": "Some description text here"
    },
    {
        "id": "MARKETING",
        "name": "Marketing",
        "snippet": "Some description text here"
    },
    {
        "id": "MGT",
        "name": "Managment",
        "snippet": "Some description text here"
    },
    {
        "id": "SALES",
        "name": "Sales",
        "snippet": "Some description text here"
    },
    {
        "id": "SLSDRCTR",
        "name": "Sales director",
        "snippet": "Some description text here"
    },
    {
        "id": "SLSMNGR",
        "name": "Sales manager",
        "snippet": "Some description text here"
    },
    {
        "id": "SRVCECENTER",
        "name": "Service center",
        "snippet": "Some description text here"
    },
    {
        "id": "WATERREP",
        "name": "Water sales representative",
        "snippet": "Some description text here"
    }
]
